[
{"type":"header","version":"5.0.2","comment":"Export to JSON plugin for PHPMyAdmin"},
{"type":"database","name":"roster"},
{"type":"table","name":"Course","database":"roster","data":
[
{"course_id":"1","title":"si106"},
{"course_id":"2","title":"si110"},
{"course_id":"3","title":"si206"}
]
}
,{"type":"table","name":"Member","database":"roster","data":
[
{"user_id":"1","course_id":"1","role":"1"},
{"user_id":"2","course_id":"1","role":"0"},
{"user_id":"3","course_id":"1","role":"0"},
{"user_id":"4","course_id":"1","role":"0"},
{"user_id":"5","course_id":"1","role":"0"},
{"user_id":"6","course_id":"2","role":"1"},
{"user_id":"7","course_id":"2","role":"0"},
{"user_id":"8","course_id":"2","role":"0"},
{"user_id":"9","course_id":"2","role":"0"},
{"user_id":"10","course_id":"2","role":"0"},
{"user_id":"11","course_id":"3","role":"1"},
{"user_id":"12","course_id":"3","role":"0"},
{"user_id":"13","course_id":"3","role":"0"},
{"user_id":"14","course_id":"3","role":"0"},
{"user_id":"15","course_id":"3","role":"0"}
]
}
,{"type":"table","name":"User","database":"roster","data":
[
{"user_id":"1","name":"Abdulkadir"},
{"user_id":"2","name":"Amna"},
{"user_id":"3","name":"Bennett"},
{"user_id":"4","name":"Clio"},
{"user_id":"12","name":"Dale"},
{"user_id":"7","name":"Ihtisham"},
{"user_id":"5","name":"Jemmia"},
{"user_id":"13","name":"Lewie"},
{"user_id":"6","name":"Lomond"},
{"user_id":"8","name":"Lula"},
{"user_id":"9","name":"Marieclare"},
{"user_id":"14","name":"Sasha"},
{"user_id":"11","name":"Sorche"},
{"user_id":"10","name":"Teyyibah"},
{"user_id":"15","name":"Zi"}
]
}
]
